{
  "count": 358,
  "next": "https://pokeapi.co/api/v2/ability?offset=40&limit=20",
  "previous": "https://pokeapi.co/api/v2/ability?offset=0&limit=20",
  "results": [
    {
      "name": "suction-cups",
      "url": "https://pokeapi.co/api/v2/ability/21/"
    },
    {
      "name": "intimidate",
      "url": "https://pokeapi.co/api/v2/ability/22/"
    },
    {
      "name": "shadow-tag",
      "url": "https://pokeapi.co/api/v2/ability/23/"
    },
    {
      "name": "rough-skin",
      "url": "https://pokeapi.co/api/v2/ability/24/"
    },
    {
      "name": "wonder-guard",
      "url": "https://pokeapi.co/api/v2/ability/25/"
    },
    {
      "name": "levitate",
      "url": "https://pokeapi.co/api/v2/ability/26/"
    },
    {
      "name": "effect-spore",
      "url": "https://pokeapi.co/api/v2/ability/27/"
    },
    {
      "name": "synchronize",
      "url": "https://pokeapi.co/api/v2/ability/28/"
    },
    {
      "name": "clear-body",
      "url": "https://pokeapi.co/api/v2/ability/29/"
    },
    {
      "name": "natural-cure",
      "url": "https://pokeapi.co/api/v2/ability/30/"
    },
    {
      "name": "lightning-rod",
      "url": "https://pokeapi.co/api/v2/ability/31/"
    },
    {
      "name": "serene-grace",
      "url": "https://pokeapi.co/api/v2/ability/32/"
    },
    {
      "name": "swift-swim",
      "url": "https://pokeapi.co/api/v2/ability/33/"
    },
    {
      "name": "chlorophyll",
      "url": "https://pokeapi.co/api/v2/ability/34/"
    },
    {
      "name": "illuminate",
      "url": "https://pokeapi.co/api/v2/ability/35/"
    },
    {
      "name": "trace",
      "url": "https://pokeapi.co/api/v2/ability/36/"
    },
    {
      "name": "huge-power",
      "url": "https://pokeapi.co/api/v2/ability/37/"
    },
    {
      "name": "poison-point",
      "url": "https://pokeapi.co/api/v2/ability/38/"
    },
    {
      "name": "inner-focus",
      "url": "https://pokeapi.co/api/v2/ability/39/"
    },
    {
      "name": "magma-armor",
      "url": "https://pokeapi.co/api/v2/ability/40/"
    }
  ]
}